<?xml version="1.0" encoding="utf-8"?>
<!-- Generator: Adobe Illustrator 18.1.0, SVG Export Plug-In . SVG Version: 6.00 Build 0)  -->
<svg version="1.1" id="Layer_1" xmlns="http://www.w3.org/2000/svg" xmlns:xlink="http://www.w3.org/1999/xlink" x="0px" y="0px"
	width="64px" height="128px" viewBox="0 0 64 128" enable-background="new 0 0 64 128" xml:space="preserve">
<rect width="64px" height="128px" fill="green" opacity="0.0" />
<g>
	<ellipse fill="#8F8F8F" cx="32" cy="62" rx="4" ry="2"/>
	<path fill="#4D4D4D" d="M44.3,0l-2.9,6.2L30.8,60.5C30.6,61.3,31.2,62,32,62l0,0c0.6,0,1.1-0.4,1.3-1C34.8,53.4,44,6.6,44,6.6
		L44.3,0z"/>
	<polygon fill="#CC6EB4" points="28.3,36.8 40.9,7.6 56.7,39.5 40.9,56.8 	"/>
</g>
</svg>
