<?xml version="1.0" encoding="utf-8"?>
<!-- Generator: Adobe Illustrator 18.1.0, SVG Export Plug-In . SVG Version: 6.00 Build 0)  -->
<svg version="1.1" id="Layer_1" xmlns="http://www.w3.org/2000/svg" xmlns:xlink="http://www.w3.org/1999/xlink" x="0px" y="0px"
	width="64px" height="128px" viewBox="0 0 64 128" enable-background="new 0 0 64 128" xml:space="preserve">
<rect width="64px" height="128px" fill="green" opacity="0.0" />
<g>
	<ellipse fill="#8F8F8F" cx="32" cy="62" rx="4" ry="2"/>
	<path fill="#4D4D4D" d="M19.8,0l2.9,6.2l10.6,54.2c0.2,0.8-0.5,1.5-1.3,1.5h0c-0.6,0-1.1-0.4-1.3-1C29.2,53.4,20,6.6,20,6.6L19.8,0
		z"/>
	<polygon fill="#ADAEB0" points="35.7,36.8 23.1,7.6 7.3,39.5 23.1,56.8 	"/>
</g>
</svg>
