<?xml version="1.0" encoding="utf-8"?>
<!-- Generator: Adobe Illustrator 18.1.0, SVG Export Plug-In . SVG Version: 6.00 Build 0)  -->
<svg version="1.1" id="Layer_1" xmlns="http://www.w3.org/2000/svg" xmlns:xlink="http://www.w3.org/1999/xlink" x="0px" y="0px"
	width="128px" height="128px" viewBox="0 0 128 128" enable-background="new 0 0 128 128" xml:space="preserve">
<rect width="128px" height="128px" fill="green" opacity="0.0" />
<g transform="translate(64,0)">
	<rect x="4" y="0" fill="#FFFFFF" width="60" height="39.8"/>
	<g>
		<g>
			<rect x="4" fill="#383C3F" width="10" height="10"/>
			<rect x="4" y="20" fill="#383C3F" width="10" height="10"/>
			<rect x="14" y="10" fill="#383C3F" width="10" height="10"/>
			<rect x="24" fill="#383C3F" width="10" height="10"/>
			<rect x="24" y="20" fill="#383C3F" width="10" height="10"/>
			<rect x="44" fill="#383C3F" width="10" height="10"/>
			<rect x="44" y="20" fill="#383C3F" width="10" height="10"/>
			<rect x="34" y="10" fill="#383C3F" width="10" height="10"/>
			<rect x="14" y="30" fill="#383C3F" width="10" height="10"/>
			<rect x="34" y="30" fill="#383C3F" width="10" height="10"/>
			<rect x="54" y="10" fill="#383C3F" width="10" height="10"/>
			<rect x="54" y="30" fill="#383C3F" width="10" height="10"/>
		</g>
	</g>
	<path fill="#4D4D4D" d="M2,64L2,64c-1.1,0-2-0.9-2-2V2c0-1.1,0.9-2,2-2h2v62C4,63.1,3.1,64,2,64z"/>
</g>
</svg>
