<?xml version="1.0" encoding="utf-8"?>
<!-- Generator: Adobe Illustrator 18.1.0, SVG Export Plug-In . SVG Version: 6.00 Build 0)  -->
<svg version="1.1" id="Layer_1" xmlns="http://www.w3.org/2000/svg" xmlns:xlink="http://www.w3.org/1999/xlink" x="0px" y="0px"
	width="64px" height="128px" viewBox="0 0 64 128" enable-background="new 0 0 64 128" xml:space="preserve">
<rect width="64px" height="128px" fill="green" opacity="0.0" />
<g>
	<path fill="#FAD75F" d="M32,0v6c4.4,0,8,3.6,8,8s-3.6,8-8,8v42l11.7-23.4c1.5-3,2.3-6.3,2.3-9.7V14C46,6.3,39.7,0,32,0z"/>
	<path fill="#FFE17D" d="M24,14c0-4.4,3.6-8,8-8V0c-0.2,0-0.4,0-0.7,0C23.8,0.4,18,6.9,18,14.4v16.5c0,3.4,0.8,6.7,2.3,9.7L32,64V22
		C27.6,22,24,18.4,24,14z"/>
</g>
</svg>
