<?xml version="1.0" encoding="utf-8"?>
<!-- Generator: Adobe Illustrator 18.1.0, SVG Export Plug-In . SVG Version: 6.00 Build 0)  -->
<svg version="1.1" id="Layer_1" xmlns="http://www.w3.org/2000/svg" xmlns:xlink="http://www.w3.org/1999/xlink" x="0px" y="0px"
	width="64px" height="128px" viewBox="0 0 64 128" enable-background="new 0 0 64 128" xml:space="preserve">
<rect width="64px" height="128px" fill="green" opacity="0.0" />
<g>
	<polygon fill="#FFAE00" points="45.1,-0.2 33.2,33.8 20,29.2 32.4,63.2 34.7,61.5 54.7,4.7 53.6,2.8 	"/>
	<polygon fill="#F2A500" points="50.2,39.8 62.1,5.8 53.6,2.8 32.4,63.2 63.4,44.4 	"/>
</g>
</svg>
