<?xml version="1.0" encoding="utf-8"?>
<!-- Generator: Adobe Illustrator 18.1.0, SVG Export Plug-In . SVG Version: 6.00 Build 0)  -->
<svg version="1.1" id="Layer_1" xmlns="http://www.w3.org/2000/svg" xmlns:xlink="http://www.w3.org/1999/xlink" x="0px" y="0px"
	width="128px" height="128px" viewBox="0 0 128 128" enable-background="new 0 0 128 128" xml:space="preserve">
<rect width="128px" height="128px" fill="green" opacity="0.0" />
<g transform="translate(16,0)">
	<path fill="#4D4D4D" d="M46,64L46,64c-1.1,0-2-0.9-2-2V2c0-1.1,0.9-2,2-2h0c1.1,0,2,0.9,2,2v60C48,63.1,47.1,64,46,64z"/>
	<polygon fill="#CC6EB4" points="48,4 48,2 42,4 0,21 42,38 48,40 48,38 42,36 42,6 	"/>
</g>
</svg>
