<?xml version="1.0" encoding="utf-8"?>
<!-- Generator: Adobe Illustrator 18.1.0, SVG Export Plug-In . SVG Version: 6.00 Build 0)  -->
<svg version="1.1" id="Layer_1" xmlns="http://www.w3.org/2000/svg" xmlns:xlink="http://www.w3.org/1999/xlink" x="0px" y="0px"
	width="64px" height="128px" viewBox="0 0 64 128" enable-background="new 0 0 64 128" xml:space="preserve">
<rect width="64px" height="128px" fill="green" opacity="0.0" />
<g>
	<path fill="#4D4D4D" d="M32,64L32,64c0,0-2-5.9-2-7V22c0-1.1,0.9-2,2-2h0c1.1,0,2,0.9,2,2v35C34,58.1,32,64,32,64z"/>
	<g>
		<path fill="#C763AE" d="M55.2,19.4c1.2-1.2,0.6-3.3-1.2-3.6l-12.8-1.9c-0.7-0.1-1.3-0.5-1.6-1.1L33.9,1.2C33.5,0.4,32.7,0,32,0v39
			c0.3,0,0.7,0.1,1,0.2l11.5,6c1.5,0.8,3.3-0.5,3-2.2l-2.2-12.8c-0.1-0.7,0.1-1.4,0.6-1.9L55.2,19.4z"/>
		<path fill="#D173B9" d="M30.1,1.2l-5.7,11.6c-0.3,0.6-0.9,1-1.6,1.1L10,15.8c-1.7,0.2-2.4,2.4-1.2,3.6l9.3,9
			c0.5,0.5,0.7,1.2,0.6,1.9L16.5,43c-0.3,1.7,1.5,3,3,2.2l11.5-6c0.3-0.2,0.6-0.2,1-0.2V0C31.3,0,30.5,0.4,30.1,1.2z"/>
	</g>
</g>
</svg>
