<?xml version="1.0" encoding="utf-8"?>
<!-- Generator: Adobe Illustrator 18.1.0, SVG Export Plug-In . SVG Version: 6.00 Build 0)  -->
<svg version="1.1" id="Layer_1" xmlns="http://www.w3.org/2000/svg" xmlns:xlink="http://www.w3.org/1999/xlink" x="0px" y="0px"
	width="64px" height="128px" viewBox="0 0 64 128" enable-background="new 0 0 64 128" xml:space="preserve">
<rect width="64px" height="128px" fill="green" opacity="0.0" />
<g>
	<path fill="#E0E0E0" d="M32,0v8c6.6,0,12,5.4,12,12c0,6.6-5.4,12-12,12v32c0,0,20-25.1,20-44C52,9,43,0,32,0z"/>
	<path fill="#E8E8E8" d="M20,20c0-6.6,5.4-12,12-12V0C21,0,12,9,12,20c0,18.9,20,44,20,44V32C25.4,32,20,26.6,20,20z"/>
</g>
</svg>
