<?xml version="1.0" encoding="utf-8"?>
<!-- Generator: Adobe Illustrator 18.1.0, SVG Export Plug-In . SVG Version: 6.00 Build 0)  -->
<svg version="1.1" id="Layer_1" xmlns="http://www.w3.org/2000/svg" xmlns:xlink="http://www.w3.org/1999/xlink" x="0px" y="0px"
	 width="64px" height="64px" viewBox="0 0 64 64" enable-background="new 0 0 64 64" xml:space="preserve">
<g>
	<circle fill="#837AC2" cx="32" cy="32" r="12"/>
	<path fill="#7F76BC" d="M32,64C14.4,64,0,49.6,0,32S14.4,0,32,0s32,14.4,32,32S49.6,64,32,64z M32,4C16.6,4,4,16.6,4,32
		s12.6,28,28,28s28-12.6,28-28S47.4,4,32,4z"/>
	<path fill="#776EB8" d="M38.8,22.2c1.4,1.9,2.2,4.3,2.2,6.8c0,6.6-5.4,12-12,12c-2.5,0-4.9-0.8-6.8-2.2C24.3,42,27.9,44,32,44
		c6.6,0,12-5.4,12-12C44,27.9,42,24.3,38.8,22.2z"/>
	<circle opacity="0.25" fill="#FFFFFF" cx="28.1" cy="28.1" r="3.7"/>
</g>
</svg>
