<?xml version="1.0" encoding="utf-8"?>
<!-- Generator: Adobe Illustrator 18.0.0, SVG Export Plug-In . SVG Version: 6.00 Build 0)  -->
<svg version="1.1" id="Layer_1" xmlns="http://www.w3.org/2000/svg" xmlns:xlink="http://www.w3.org/1999/xlink" x="0px" y="0px"
	width="64px" height="128px" viewBox="0 0 64 128" enable-background="new 0 0 64 128" xml:space="preserve">
<rect width="64px" height="128px" fill="green" opacity="0.0" />
<g>
	<polygon fill="#FAD75F" points="41.5,36 41.5,0 32.5,0 32.5,64 55.5,36 	"/>
	<polygon fill="#FFE17D" points="23.5,0 23.5,36 9.5,36 32.5,64 32.5,0 	"/>
</g>
</svg>
