<?xml version="1.0" encoding="utf-8"?>
<!-- Generator: Adobe Illustrator 18.1.0, SVG Export Plug-In . SVG Version: 6.00 Build 0)  -->
<svg version="1.1" id="Layer_1" xmlns="http://www.w3.org/2000/svg" xmlns:xlink="http://www.w3.org/1999/xlink" x="0px" y="0px"
	width="64px" height="128px" viewBox="0 0 64 128" enable-background="new 0 0 64 128" xml:space="preserve">
<rect width="64px" height="128px" fill="green" opacity="0.0" />
<g>
	<path fill="#4D4D4D" d="M32,64L32,64c0,0-2-5.9-2-7V22c0-1.1,0.9-2,2-2h0c1.1,0,2,0.9,2,2v35C34,58.1,32,64,32,64z"/>
	<path fill="#4888C2" d="M32,7.7c0-3.3,6.2-7.9,12.6-6.7c7.4,1.4,11.2,9.6,5.9,21.9S32,46,32,46V7.7z"/>
	<path fill="#5997CF" d="M32,7.7c0-3.3-6.2-7.9-12.6-6.7C12,2.3,8.1,10.5,13.5,22.8S32,46,32,46V7.7z"/>
</g>
</svg>
