<?xml version="1.0" encoding="utf-8"?>
<!-- Generator: Adobe Illustrator 18.1.0, SVG Export Plug-In . SVG Version: 6.00 Build 0)  -->
<svg version="1.1" id="Layer_1" xmlns="http://www.w3.org/2000/svg" xmlns:xlink="http://www.w3.org/1999/xlink" x="0px" y="0px"
	width="64px" height="128px" viewBox="0 0 64 128" enable-background="new 0 0 64 128" xml:space="preserve">
<rect width="64px" height="128px" fill="green" opacity="0.0" />
<g>
	<path fill="#4D4D4D" d="M32,64L32,64c1.1,0,2-0.9,2-2V2c0-1.1-0.9-2-2-2h0c-1.1,0-2,0.9-2,2v60C30,63.1,30.9,64,32,64z"/>
	<g>
		<rect x="20" y="2" fill="#776EB8" width="11" height="24"/>
		<path fill="#776EB8" d="M12,6C12,6,12,6,12,6l0,24c0,0,0,0,0,0H0V6H12z"/>
		<path fill="#837AC2" d="M15.2,4.7l1.5-1.4c0.9-0.8,2-1.3,3.2-1.3H20v24h-0.1c-1.2,0-2.3,0.5-3.2,1.3l-1.5,1.4
			C14.3,29.5,13,30,12,30V6C13,6,14.3,5.5,15.2,4.7z"/>
	</g>
	<rect x="30" y="2" fill="#837AC2" width="4" height="24"/>
</g>
</svg>
