<?xml version="1.0" encoding="utf-8"?>
<!-- Generator: Adobe Illustrator 18.1.0, SVG Export Plug-In . SVG Version: 6.00 Build 0)  -->
<svg version="1.1" id="Layer_1" xmlns="http://www.w3.org/2000/svg" xmlns:xlink="http://www.w3.org/1999/xlink" x="0px" y="0px"
	width="64px" height="128px" viewBox="0 0 64 128" enable-background="new 0 0 64 128" xml:space="preserve">
<rect width="64px" height="128px" fill="green" opacity="0.0" />
<g>
	<path fill="#4D4D4D" d="M31.7,64L31.7,64c0,0-0.1-6.2,0.2-7.3L47.2,8.3c0.3-1.1,1.5-1.6,2.5-1.3l0,0c1.1,0.3,1.6,1.5,1.3,2.5
		L35.7,57.9C35.4,59,31.7,64,31.7,64z"/>
	<g>
		<path fill="#3D4245" d="M40.1,11.5l-4.8,15.1c-6.4,0.7-12,4.6-13.9,10.6l17.2,5.4L40,42L51.1,5l-0.5-0.5L37.3,0.3
			C36.1,4.2,37.3,8.3,40.1,11.5z"/>
		<path fill="#313538" d="M55.7,48.1c1.9-6-0.4-12.4-5.2-16.7l4.8-15.1c4.1-1,7.5-3.7,8.7-7.6L50.7,4.5L38.6,42.6L55.7,48.1z"/>
	</g>
</g>
</svg>
