<?xml version="1.0" encoding="utf-8"?>
<!-- Generator: Adobe Illustrator 18.1.0, SVG Export Plug-In . SVG Version: 6.00 Build 0)  -->
<svg version="1.1" id="Layer_1" xmlns="http://www.w3.org/2000/svg" xmlns:xlink="http://www.w3.org/1999/xlink" x="0px" y="0px"
	width="64px" height="128px" viewBox="0 0 64 128" enable-background="new 0 0 64 128" xml:space="preserve">
<rect width="64px" height="128px" fill="green" opacity="0.0" />
<g>
	<path fill="#DBDBDB" d="M32,0L32,0L32,0C20.4,0,11,9.3,11,20.8c0,9.8,6.4,16.1,11,24.2c5.2,9.1,10,19,10,19s4.8-9.9,10-19
		c4.6-8.1,11-14.4,11-24.2C53,9.3,43.6,0,32,0z"/>
	<g>
		<circle fill="#CC6EB4" cx="32" cy="21" r="10"/>
	</g>
</g>
</svg>
